…
Now, `hbl` is in a format one can work with, see output below.

However, it is also clear that the data are not perfect, for example,
the correct capacity is missing in row 3 and the attendance is larger
than the capacity in row
13.

``` r
select(hbl, rowid, year, home_team, away_team, attendance, capacity) %>% 
    print(n = 13)
#> # A tibble: 918 x 6
#>    rowid year  home_team            away_team           attendance capacity
#>    <int> <fct> <chr>                <chr>                    <int>    <int>
#>  1     1 16/17 HSG Wetzlar          Füchse Berlin             4083     4412
#>  2     2 16/17 Rhein-Neckar Löwen   SC Magdeburg              7105    13200
#>  3     3 16/17 SG Flensburg-Handew~ HC Erlangen               5837        0
#>  4     4 16/17 VfL Gummersbach      HBW Balingen-Weils~       3288     4050
#>  5     5 16/17 TBV Lemgo Lippe      TSV GWD Minden            4150     4861
#>  6     6 16/17 FRISCH AUF! Göpping~ TSV Hannover-Burgd~       4400     5600
#>  7     7 16/17 SC DHfK Leipzig      Bergischer HC             3354     6500
#>  8     8 16/17 MT Melsungen         HSC 2000 Coburg           3268     4300
#>  9     9 16/17 TVB 1898 Stuttgart   THW Kiel                  6211     6211
#> 10    10 16/17 HSC 2000 Coburg      Rhein-Neckar Löwen        3274     3500
#> 11    11 16/17 TSV Hannover-Burgdo~ SG Flensburg-Hande~       4100     4150
#> 12    12 16/17 HBW Balingen-Weilst~ HSG Wetzlar               2250    10285
#> 13    13 16/17 HC Erlangen          MT Melsungen              3122     1400
#> # ... with 905 more rows
```
…
