…
glance() gives us information about the whole model.
Here, R squared is pretty high and the RMSE equals 0.154.

glance(lm_fit1$fit)
#> # A tibble: 1 x 11
#>   r.squared adj.r.squared sigma statistic p.value    df logLik    AIC    BIC deviance
#>       <dbl>         <dbl> <dbl>     <dbl>   <dbl> <int>  <dbl>  <dbl>  <dbl>    <dbl>
#> 1     0.977         0.977 0.154     9607.       0    25  2457. -4863. -4691.     127.
#> # ... with 1 more variable: df.residual <int>

tidy() gives us information about the model parameters, and we see that we have a significant quadratic effect of carat.

tidy(lm_fit1) %>% 
  arrange(desc(abs(statistic)))
#> # A tibble: 25 x 5
#>    term         estimate std.error statistic  p.value
#>    <chr>           <dbl>     <dbl>     <dbl>    <dbl>
#>  1 (Intercept)    7.71     0.00431   1790.   0.      
#>  2 carat_poly_2 -17.5      0.259      -67.7  0.      
#>  3 clarity_1      0.861    0.0135      64.0  0.      
#>  4 color_1       -0.456    0.00738    -61.8  0.      
#>  5 carat_poly_1  51.7      1.10        47.0  0.      
#>  6 clarity_2     -0.243    0.0127     -19.2  3.63e-79
#>  7 color_2       -0.0841   0.00665    -12.7  3.50e-36
#>  8 clarity_3      0.132    0.0107      12.3  2.51e-34
#>  9 cut_1          0.107    0.00997     10.7  1.88e-26
#> 10 clarity_4     -0.0529   0.00839     -6.30 3.15e-10
#> # ... with 15 more rows

Finally, augment() can be used to get model predictions, residuals, etc.

lm_predicted <- augment(lm_fit1$fit, data = dia_juiced) %>% 
    rowid_to_column()
select(lm_predicted, rowid, price, .fitted:.std.resid)
#> # A tibble: 5,395 x 9
#>    rowid price .fitted .se.fit  .resid    .hat .sigma   .cooksd .std.resid
#>    <int> <dbl>   <dbl>   <dbl>   <dbl>   <dbl>  <dbl>     <dbl>      <dbl>
#>  1     1  5.83    5.90 0.0133  -0.0769 0.00744  0.154 0.0000755     -0.502
#>  2     2  5.84    5.80 0.0110   0.0472 0.00507  0.154 0.0000193      0.307
#>  3     3  5.86    5.89 0.0138  -0.0286 0.00801  0.154 0.0000112     -0.187
#>  4     4  5.88    6.24 0.00988 -0.360  0.00413  0.154 0.000910      -2.34 
#>  5     5  6.00    6.24 0.0104  -0.244  0.00458  0.154 0.000467      -1.59 
#>  6     6  6.00    6.06 0.0100  -0.0615 0.00427  0.154 0.0000275     -0.401
#>  7     7  6.00    6.10 0.0111  -0.0999 0.00520  0.154 0.0000887     -0.651
#>  8     8  6.00    6.06 0.0104  -0.0566 0.00459  0.154 0.0000251     -0.369
#>  9     9  6.00    6.22 0.00895 -0.216  0.00339  0.154 0.000270      -1.41 
#> 10    10  6.32    6.55 0.00872 -0.233  0.00321  0.154 0.000297      -1.52 
#> # ... with 5,385 more rows
…
